Sports Data Analysis and Visualization - Comparing My Playoff Projection to Playoff Percentages Each Week
…
load("playoffsummarydata.RData")

files <- list.files( pattern = "*.xlsx", full.names = TRUE)

all_data <- files %>%
  map_dfr(~ {
    temp_data <- read_excel(.x, skip = 1)
    temp_data <- temp_data[, c("Date", "Post")] %>%
      mutate(FileName = tools::file_path_sans_ext(basename(.x)))
    return(temp_data)
  })

print(playoffsummary)

# A tibble: 30 × 3
# Groups:   Division [6]
   Division Team                  `Percent Playoffs Made`
   <chr>    <chr>                 <chr>                  
 1 NL_West  Los Angeles Dodgers   89.3%                  
 2 NL_West  San Francisco Giants  50.0%                  
 3 NL_West  San Diego Padres      42.4%                  
 4 NL_West  Arizona Diamondbacks  28.6%                  
 5 NL_West  Colorado Rockies      10.6%                  
 6 NL_East  Atlanta Braves        68.7%                  
 7 NL_East  New York Mets         67.9%                  
 8 NL_East  Philadelphia Phillies 49.4%                  
 9 NL_East  Miami Marlins         22.9%                  
10 NL_East  Washington Nationals  6.8%                   
# ℹ 20 more rows
…
  if (grepl("%", cleaned_value)) {
    return(cleaned_value)
  } else if (grepl("E", cleaned_value)) {
    return(sprintf("%.2f%%", as.numeric(cleaned_value) * 100))
  } else {
    return(sprintf("%.2f%%", as.numeric(cleaned_value) * 100))
  }
}

all_data$Post <- sapply(all_data$Post, convert_to_percentage)

names(all_data)[names(all_data) == "FileName"] <- "Team"
print(all_data)

# A tibble: 5,460 × 3
   Date                Post  Team  
   <dttm>              <chr> <chr> 
 1 2023-10-01 00:00:00 0.1%  angels
 2 2023-09-30 00:00:00 0.1%  angels
 3 2023-09-29 00:00:00 0.1%  angels
 4 2023-09-28 00:00:00 0.1%  angels
 5 2023-09-27 00:00:00 0.1%  angels
 6 2023-09-26 00:00:00 0.1%  angels
 7 2023-09-25 00:00:00 0.1%  angels
 8 2023-09-24 00:00:00 0.1%  angels
 9 2023-09-23 00:00:00 0.1%  angels
10 2023-09-22 00:00:00 0.1%  angels
# ℹ 5,450 more rows
…
